<?xml version="1.0" encoding="utf-8"?>
<!-- Generator: Adobe Illustrator 16.2.0, SVG Export Plug-In . SVG Version: 6.00 Build 0)  -->
<!DOCTYPE svg PUBLIC "-//W3C//DTD SVG 1.1//EN" "http://www.w3.org/Graphics/SVG/1.1/DTD/svg11.dtd">
<svg version="1.1" id="Layer_1" xmlns="http://www.w3.org/2000/svg" xmlns:xlink="http://www.w3.org/1999/xlink" x="0px" y="0px"
	 width="191.288px" height="209.667px" viewBox="9.545 13.333 191.288 209.667"
	 enable-background="new 9.545 13.333 191.288 209.667" xml:space="preserve">
<g>
	<g>
		<defs>
			<filter id="Adobe_OpacityMaskFilter" filterUnits="userSpaceOnUse" x="9.545" y="31.818" width="190.909" height="190.908">
				<feColorMatrix  type="matrix" values="1 0 0 0 0  0 1 0 0 0  0 0 1 0 0  0 0 0 1 0"/>
			</filter>
		</defs>
		<mask maskUnits="userSpaceOnUse" x="9.545" y="31.818" width="190.909" height="190.908" id="mask0_6_48">
			<path fill="#FFFFFF" filter="url(#Adobe_OpacityMaskFilter)" d="M105,222.727c52.718,0,95.454-42.735,95.454-95.453
				c0-52.719-42.736-95.455-95.454-95.455c-52.718,0-95.455,42.736-95.455,95.455C9.545,179.991,52.282,222.727,105,222.727z"/>
		</mask>
		<g mask="url(#mask0_6_48)">
			<path fill="#E6E6E6" d="M105,222.727c52.718,0,95.454-42.735,95.454-95.453c0-52.719-42.736-95.455-95.454-95.455
				c-52.718,0-95.455,42.736-95.455,95.455C9.545,179.991,52.282,222.727,105,222.727z"/>
			<path fill="#FFB742" d="M200.454,31.818H9.545v190.908h190.909V31.818z"/>
		</g>
		<defs>
			<filter id="Adobe_OpacityMaskFilter_1_" filterUnits="userSpaceOnUse" x="0" y="13.522" width="235.455" height="237.841">
				<feColorMatrix  type="matrix" values="1 0 0 0 0  0 1 0 0 0  0 0 1 0 0  0 0 0 1 0"/>
			</filter>
		</defs>
		<mask maskUnits="userSpaceOnUse" x="0" y="13.522" width="235.455" height="237.841" id="mask1_6_48">
			<path fill="#FFFFFF" filter="url(#Adobe_OpacityMaskFilter_1_)" d="M9.545,127.273c0,52.718,42.736,95.453,95.455,95.453
				c52.718,0,95.455-42.735,95.455-95.453H210V0H0v127.273H9.545z"/>
		</mask>
		<g mask="url(#mask1_6_48)">
			<defs>
				<filter id="Adobe_OpacityMaskFilter_2_" filterUnits="userSpaceOnUse" x="25.455" y="28.637" width="210" height="222.727">
					<feColorMatrix  type="matrix" values="1 0 0 0 0  0 1 0 0 0  0 0 1 0 0  0 0 0 1 0"/>
				</filter>
			</defs>
			<mask maskUnits="userSpaceOnUse" x="25.455" y="28.637" width="210" height="222.727" id="mask2_6_48">
				<path fill="#FFFFFF" filter="url(#Adobe_OpacityMaskFilter_2_)" d="M124.091,143.668v14.628h3.183
					c31.631,0,57.271,25.642,57.271,57.272v7.158H25.455v-7.158c0-31.631,25.642-57.272,57.273-57.272h3.182v-14.628
					c-13.712-6.514-23.568-19.826-25.212-35.581c-4.633-0.655-8.197-4.636-8.197-9.45V87.5c0-4.729,3.44-8.656,7.955-9.414v-4.905
					c0-24.602,19.944-44.545,44.545-44.545s44.545,19.943,44.545,44.545v4.905c4.516,0.757,7.955,4.684,7.955,9.414v11.137
					c0,4.814-3.564,8.795-8.197,9.45C147.658,123.842,137.802,137.154,124.091,143.668z"/>
			</mask>
			<g mask="url(#mask2_6_48)">
				<path fill="#D0C6AC" d="M124.091,143.668v14.628h3.183c31.631,0,57.271,25.642,57.271,57.272v7.158H25.455v-7.158
					c0-31.631,25.642-57.272,57.273-57.272h3.182v-14.628c-13.712-6.514-23.568-19.826-25.212-35.581
					c-4.633-0.655-8.197-4.636-8.197-9.45V87.5c0-4.729,3.44-8.656,7.955-9.414v-4.905c0-24.602,19.944-44.545,44.545-44.545
					s44.545,19.943,44.545,44.545v4.905c4.516,0.757,7.955,4.684,7.955,9.414v11.137c0,4.814-3.564,8.795-8.197,9.45
					C147.658,123.842,137.802,137.154,124.091,143.668z"/>
				<path fill="#FFE6CF" d="M235.455,28.637h-210v222.727h210V28.637z"/>
				<path fill-opacity="0.1" d="M149.545,91.478v18.295c0,24.602-19.943,44.545-44.545,44.545s-44.545-19.943-44.545-44.545V91.478
					v11.932c0,24.602,19.944,44.546,44.545,44.546s44.545-19.944,44.545-44.546V91.478z"/>
			</g>
			<defs>
				<filter id="Adobe_OpacityMaskFilter_3_" filterUnits="userSpaceOnUse" x="0" y="135.227" width="210" height="87.5">
					<feColorMatrix  type="matrix" values="1 0 0 0 0  0 1 0 0 0  0 0 1 0 0  0 0 0 1 0"/>
				</filter>
			</defs>
			<mask maskUnits="userSpaceOnUse" x="0" y="135.227" width="210" height="87.5" id="mask3_6_48">
				<path fill="#FFFFFF" filter="url(#Adobe_OpacityMaskFilter_3_)" d="M85.909,145.625c-14.253,1.596-25.232,5.95-25.451,17.161
					c-20.569,8.688-35.003,29.05-35.003,52.782v7.158h159.09v-7.158c0-23.732-14.434-44.094-35.003-52.782
					c-0.219-11.211-11.198-15.565-25.451-17.161v15.057c0,10.543-8.547,19.092-19.091,19.092c-10.543,0-19.091-8.549-19.091-19.092
					V145.625z"/>
			</mask>
			<g mask="url(#mask3_6_48)">
				<path fill="#B7C1DB" d="M85.909,145.625c-14.253,1.596-25.232,5.95-25.451,17.161c-20.569,8.688-35.003,29.05-35.003,52.782
					v7.158h159.09v-7.158c0-23.732-14.434-44.094-35.003-52.782c-0.219-11.211-11.198-15.565-25.451-17.161v15.057
					c0,10.543-8.547,19.092-19.091,19.092c-10.543,0-19.091-8.549-19.091-19.092V145.625z"/>
				<path fill="#273C4D" d="M210,135.227H0v87.5h210V135.227z"/>
				<path fill="#F4F4F4" d="M81.136,184.338v38.389h-5.568v-41.244C77.321,182.525,79.185,183.48,81.136,184.338z M134.432,181.482
					v32.098c0,1.537-1.246,2.783-2.783,2.783c-1.539,0-2.785-1.246-2.785-2.783v-29.242
					C130.814,183.48,132.68,182.525,134.432,181.482z"/>
				<path fill-opacity="0.16" d="M72.354,145.35c-11.972,2.265-20.252,6.775-20.252,15.577c0,15.681,26.28,28.392,52.898,28.392
					c26.618,0,52.898-12.711,52.898-28.392c0-8.802-8.28-13.313-20.254-15.577c7.228,2.664,11.9,7.145,11.9,14.599
					c0,16.221-22.13,29.37-44.545,29.37s-44.545-13.149-44.545-29.37C60.455,152.494,65.128,148.014,72.354,145.35z"/>
			</g>
			<defs>
				<filter id="Adobe_OpacityMaskFilter_4_" filterUnits="userSpaceOnUse" x="89.974" y="108.182" width="30.057" height="35">
					<feColorMatrix  type="matrix" values="1 0 0 0 0  0 1 0 0 0  0 0 1 0 0  0 0 0 1 0"/>
				</filter>
			</defs>
			<mask maskUnits="userSpaceOnUse" x="89.974" y="108.182" width="30.057" height="35" id="mask4_6_48">
				<path fill="#FFFFFF" filter="url(#Adobe_OpacityMaskFilter_4_)" d="M89.98,118.625c0.842,7.55,7.245,13.42,15.02,13.42
					c7.799,0,14.218-5.906,15.027-13.49c0.065-0.611-0.616-1.623-1.471-1.623c-11.848,0-20.924,0-27.01,0
					C90.687,116.932,89.896,117.869,89.98,118.625z"/>
			</mask>
			<g mask="url(#mask4_6_48)">
				<path fill-opacity="0.7" d="M89.98,118.625c0.841,7.55,7.245,13.42,15.02,13.42c7.799,0,14.218-5.906,15.027-13.49
					c0.065-0.611-0.616-1.623-1.471-1.623c-11.848,0-20.924,0-27.01,0C90.688,116.932,89.896,117.869,89.98,118.625z"/>
				<path fill="#FFFFFF" d="M113.75,108.182H97.045c-2.196,0-3.977,1.78-3.977,3.977v4.772c0,2.196,1.781,3.978,3.977,3.978h16.705
					c2.197,0,3.977-1.781,3.977-3.978v-4.772C117.727,109.962,115.947,108.182,113.75,108.182z"/>
				<path fill="#FF4F6D" d="M101.023,143.182c4.833,0,8.75-3.918,8.75-8.75s-3.918-8.75-8.75-8.75s-8.75,3.918-8.75,8.75
					S96.19,143.182,101.023,143.182z"/>
				<path fill="#FF4F6D" d="M108.977,143.182c4.834,0,8.75-3.918,8.75-8.75s-3.916-8.75-8.75-8.75c-4.832,0-8.75,3.918-8.75,8.75
					S104.145,143.182,108.977,143.182z"/>
			</g>
			<path fill-opacity="0.16" d="M95.455,103.409c0,3.515,4.273,6.364,9.545,6.364c5.271,0,9.546-2.849,9.546-6.364"/>
			<path fill-opacity="0.6" d="M73.309,89.447c1.469-3.022,4.776-5.128,8.621-5.128c3.831,0,7.128,2.092,8.605,5.096
				c0.439,0.893-0.186,1.623-0.815,1.082c-1.95-1.676-4.719-2.723-7.79-2.723c-2.975,0-5.667,0.982-7.604,2.567
				C73.617,90.92,72.879,90.331,73.309,89.447z"/>
			<path fill-opacity="0.6" d="M119.445,89.447c1.469-3.022,4.777-5.128,8.621-5.128c3.83,0,7.129,2.092,8.604,5.096
				c0.438,0.893-0.185,1.623-0.815,1.082c-1.949-1.676-4.717-2.723-7.789-2.723c-2.976,0-5.666,0.982-7.604,2.567
				C119.753,90.92,119.016,90.331,119.445,89.447z"/>
			<path fill-opacity="0.6" d="M72.888,78.876c3.114-4.382,11.651-6.839,19.005-5.033c0.854,0.21,1.715-0.312,1.924-1.166
				c0.21-0.853-0.312-1.715-1.166-1.924c-8.541-2.097-18.426,0.748-22.358,6.28c-0.509,0.716-0.341,1.709,0.375,2.218
				C71.385,79.76,72.378,79.592,72.888,78.876z"/>
			<path fill-opacity="0.6" d="M137.113,78.876c-3.114-4.382-11.652-6.839-19.006-5.033c-0.854,0.21-1.715-0.312-1.924-1.166
				c-0.211-0.853,0.312-1.715,1.164-1.924c8.541-2.097,18.428,0.748,22.358,6.28c0.509,0.716,0.341,1.709-0.375,2.218
				C138.615,79.76,137.622,79.592,137.113,78.876z"/>
			<defs>
				<filter id="Adobe_OpacityMaskFilter_5_" filterUnits="userSpaceOnUse" x="53.295" y="13.522" width="103.41" height="92.272">
					<feColorMatrix  type="matrix" values="1 0 0 0 0  0 1 0 0 0  0 0 1 0 0  0 0 0 1 0"/>
				</filter>
			</defs>
			<mask maskUnits="userSpaceOnUse" x="53.295" y="13.522" width="103.41" height="92.272" id="mask5_6_48">
				<path fill="#FFFFFF" filter="url(#Adobe_OpacityMaskFilter_5_)" d="M210,0H0v222.727h210V0z"/>
			</mask>
			<g mask="url(#mask5_6_48)">
				<defs>
					<filter id="Adobe_OpacityMaskFilter_6_" filterUnits="userSpaceOnUse" x="53.295" y="13.522" width="103.41" height="92.272">
						<feColorMatrix  type="matrix" values="1 0 0 0 0  0 1 0 0 0  0 0 1 0 0  0 0 0 1 0"/>
					</filter>
				</defs>
				<mask maskUnits="userSpaceOnUse" x="53.295" y="13.522" width="103.41" height="92.272" id="mask6_6_48">
					<path fill="#FFFFFF" filter="url(#Adobe_OpacityMaskFilter_6_)" d="M142.506,31.755c-2.195-2.243-4.744-4.147-7.223-6.057
						c-0.547-0.421-1.104-0.832-1.639-1.269c-0.121-0.099-1.367-0.991-1.516-1.319c-0.359-0.79-0.15-0.175-0.102-1.117
						c0.063-1.191,2.492-4.558,0.68-5.329c-0.798-0.339-2.221,0.564-2.986,0.862c-1.496,0.584-3.011,1.082-4.559,1.511
						c0.742-1.477,2.154-4.434-0.501-3.642c-2.07,0.617-3.998,2.202-6.078,2.947c0.688-1.128,3.44-4.623,0.954-4.818
						c-0.773-0.061-3.025,1.391-3.859,1.7c-2.494,0.928-5.043,1.527-7.662,1.999c-8.908,1.605-19.324,1.147-27.565,5.203
						c-6.354,3.126-12.627,7.977-16.298,14.154c-3.538,5.954-4.861,12.47-5.601,19.292c-0.543,5.007-0.587,10.183-0.333,15.208
						c0.083,1.646,0.269,9.236,2.66,6.938c1.192-1.146,1.183-5.77,1.483-7.335c0.598-3.114,1.172-6.243,2.168-9.257
						c1.755-5.313,3.825-10.972,8.197-14.631c2.806-2.348,4.776-5.521,7.461-7.89c1.206-1.064,0.286-0.953,2.225-0.813
						c1.303,0.094,2.611,0.129,3.917,0.164c3.02,0.078,6.044,0.059,9.064,0.069c6.083,0.022,12.137,0.108,18.213-0.21
						c2.701-0.141,5.41-0.218,8.103-0.468c1.504-0.14,4.174-1.104,5.413-0.367c1.133,0.674,2.311,2.875,3.124,3.777
						c1.923,2.13,4.216,3.758,6.464,5.505c4.689,3.643,7.057,8.218,8.48,13.911c1.418,5.671,1.021,10.933,2.776,16.515
						c0.308,0.981,1.126,2.673,2.134,1.157c0.187-0.282,0.137-1.83,0.137-2.72c0-3.595,0.912-6.292,0.9-9.912
						C151.092,54.51,150.736,40.163,142.506,31.755z"/>
				</mask>
				<g mask="url(#mask6_6_48)">
					<path fill="#1F3140" d="M142.506,31.755c-2.195-2.243-4.744-4.147-7.223-6.057c-0.547-0.421-1.104-0.832-1.639-1.269
						c-0.121-0.099-1.367-0.991-1.516-1.319c-0.359-0.79-0.15-0.175-0.102-1.117c0.063-1.191,2.492-4.558,0.68-5.329
						c-0.798-0.339-2.221,0.564-2.986,0.862c-1.496,0.584-3.011,1.082-4.559,1.511c0.742-1.477,2.154-4.434-0.501-3.642
						c-2.07,0.617-3.998,2.202-6.078,2.947c0.688-1.128,3.44-4.623,0.954-4.818c-0.773-0.061-3.025,1.391-3.859,1.7
						c-2.494,0.928-5.043,1.527-7.662,1.999c-8.908,1.605-19.324,1.147-27.566,5.203c-6.354,3.126-12.627,7.977-16.297,14.154
						c-3.538,5.954-4.861,12.47-5.601,19.293c-0.543,5.007-0.587,10.183-0.333,15.208c0.083,1.646,0.268,9.236,2.66,6.938
						c1.192-1.146,1.183-5.77,1.483-7.335c0.597-3.114,1.172-6.243,2.168-9.257c1.755-5.313,3.825-10.972,8.197-14.631
						c2.806-2.348,4.776-5.521,7.461-7.89c1.206-1.064,0.286-0.953,2.225-0.813c1.303,0.094,2.611,0.129,3.917,0.164
						c3.02,0.078,6.044,0.059,9.064,0.069c6.083,0.022,12.137,0.108,18.213-0.21c2.701-0.141,5.408-0.218,8.103-0.468
						c1.504-0.14,4.174-1.104,5.413-0.367c1.133,0.674,2.311,2.875,3.124,3.777c1.923,2.13,4.215,3.758,6.464,5.505
						c4.688,3.643,7.057,8.218,8.48,13.911c1.418,5.671,1.02,10.933,2.775,16.515c0.309,0.981,1.126,2.673,2.135,1.157
						c0.187-0.282,0.137-1.83,0.137-2.72c0-3.595,0.912-6.292,0.9-9.912C151.092,54.51,150.736,40.163,142.506,31.755z"/>
					<g>
						<path fill="#252C2F" d="M80.341,105.795h-2.194c-11.079,0-17.693-6.096-17.693-16.306c0-8.251,1.445-16.307,18.717-16.307
							h2.339c17.271,0,18.717,8.056,18.717,16.307C100.228,99.088,92.051,105.795,80.341,105.795z M79.057,77.955
							c-15.42,0-15.42,5.441-15.42,12.331c0,5.624,2.479,12.329,14.295,12.329h2.41c9.835,0,16.705-5.07,16.705-12.329
							c0-6.889,0-12.331-15.42-12.331H79.057z"/>
						<path fill="#252C2F" d="M129.659,105.795h-2.194c-11.078,0-17.691-6.096-17.691-16.306c0-8.251,1.444-16.307,18.717-16.307
							h2.339c17.271,0,18.717,8.056,18.717,16.307C149.546,99.088,141.369,105.795,129.659,105.795z M128.375,77.955
							c-15.42,0-15.42,5.441-15.42,12.331c0,5.624,2.48,12.329,14.295,12.329h2.409c9.836,0,16.704-5.07,16.704-12.329
							c0-6.889,0-12.331-15.42-12.331H128.375z"/>
						<path fill="#252C2F" d="M55.646,77.773c0.55-0.538,6.566-4.591,23.502-4.591c14.2,0,17.206,1.474,21.756,3.701l0.333,0.164
							c0.316,0.112,1.934,0.662,3.826,0.722c1.724-0.074,3.199-0.541,3.628-0.691c5.195-2.525,10.277-3.896,22.16-3.896
							c16.937,0,22.953,4.054,23.502,4.591c1.301,0,2.352,1.026,2.352,2.295v2.295c0,1.27-1.051,2.295-2.352,2.295
							c0,0-5.488,0-5.488,2.295c0,2.296-1.561-3.321-1.561-4.591v-2.236c-2.867-1.097-7.998-3.139-16.453-3.139
							c-9.418,0-14.109,1.67-18.134,3.329l0.046,0.108l-0.002,1.58l-1.765,4.255l-2.179-0.861c-0.194-0.077-0.614-0.215-1.196-0.358
							c-1.623-0.4-3.291-0.522-4.766-0.219c-0.542,0.111-1.044,0.278-1.505,0.503l-2.102,1.027l-2.103-4.105l0.093-1.825
							l0.064-0.155c-3.471-1.617-6.67-3.278-18.156-3.278c-8.454,0-13.585,2.042-16.452,3.138v2.237c0,1.27-2.35,6.887-2.35,4.591
							c0-2.295-4.7-2.295-4.7-2.295c-1.297,0-2.351-1.026-2.351-2.295v-2.295C53.295,78.799,54.349,77.773,55.646,77.773z"/>
					</g>
				</g>
			</g>
		</g>
	</g>
</g>
</svg>
